{
  "gitzone": {
    "module": {
      "githost": "gitlab.com",
      "gitscope": "mojoio",
      "gitrepo": "logz",
      "shortDescription": "an unofficial package for logz.io&#x27;s https bulk shipping api with support for smartlog",
      "npmPackagename": "@mojoio/logz",
      "license": "MIT",
      "projectDomain": "mojo.io"
    }
  },
  "npmci": {
    "npmGlobalTools": [],
    "npmAccessLevel": "public"
  }
}